{
    "CrearTabla":"CREATE TABLE if not exists {} ( {} )",
    "InsertarDatos":"INSERT INTO {} VALUES (NULL, {} )",
    "LeerDatos":"SELECT * FROM {} WHERE ID={}",
    "ActualizarDatos":"UPDATE {} SET {}='{}' WHERE ID={}",
    "EliminarDatos":"DELETE FROM {} WHERE ID={}",
    "ColumnaBiblioteca": "ID INTEGER primary key AUTOINCREMENT, nombre VARCHAR(50) not null, direccion VARCHAR(30), telefono TEXT not null, correoElectronio VARCHAR(50) not null, capacidad INTEGER, horario TEXT",
    "ColumnaLibro": "ID INTEGER primary key AUTOINCREMENT, titulo VARCHAR(50) not null, autor TEXT not null, editorial VARCHAR(50) not null, edicion INTEGER, isbn TEXT, añoPublicacion VARCHAR(30) not null",
    "ColumnaUsuario": "ID INTEGER primary key AUTOINCREMENT, nombre TEXT not null, apellido TEXT not null, dni TEXT not null, fechaNacimiento VARCHAR(20) not null, correoElectronio VARCHAR (50) not null, telefono TEXT not null"
    
}
